<?xml version="1.0" encoding="utf-8"?>
<!-- Generator: Adobe Illustrator 22.0.0, SVG Export Plug-In . SVG Version: 6.00 Build 0)  -->
<svg version="1.1" id="Layer_1" xmlns="http://www.w3.org/2000/svg" xmlns:xlink="http://www.w3.org/1999/xlink" x="0px" y="0px"
	 viewBox="0 0 141.3 114.7" style="enable-background:new 0 0 141.3 114.7;" xml:space="preserve">
<style type="text/css">
	.st0{fill:#A3C8E7;}
	.st1{fill:#465D7A;}
	.st2{opacity:0.5;fill:url(#SVGID_1_);enable-background:new    ;}
	.st3{opacity:0.5;fill:url(#SVGID_2_);enable-background:new    ;}
	.st4{fill:url(#SVGID_3_);}
	.st5{fill:none;stroke:#A3C8E7;stroke-miterlimit:10;}
	.st6{fill:#EDEDED;}
	.st7{fill:#2C3C50;}
	.st8{fill:url(#SVGID_4_);}
</style>
<g>
	
		<rect x="56.4" y="89.2" transform="matrix(0.8937 -0.4487 0.4487 0.8937 -35.5092 37.1994)" class="st0" width="8.7" height="8.7"/>
	
		<rect x="54.6" y="93.4" transform="matrix(0.3145 -0.9493 0.9493 0.3145 -47.1214 121.7237)" class="st1" width="12.2" height="0.3"/>
</g>
<linearGradient id="SVGID_1_" gradientUnits="userSpaceOnUse" x1="34.45" y1="39.6209" x2="34.45" y2="46.4096" gradientTransform="matrix(1 0 0 1 0 50)">
	<stop  offset="0" style="stop-color:#A3C8E7"/>
	<stop  offset="1.352668e-02" style="stop-color:#A9CCE9"/>
	<stop  offset="8.426267e-02" style="stop-color:#C4DCF0"/>
	<stop  offset="0.1656" style="stop-color:#DAE9F5"/>
	<stop  offset="0.2605" style="stop-color:#EBF3FA"/>
	<stop  offset="0.3779" style="stop-color:#F6FAFD"/>
	<stop  offset="0.5427" style="stop-color:#FDFEFF"/>
	<stop  offset="1" style="stop-color:#FFFFFF"/>
</linearGradient>
<path class="st2" d="M57.8,89.4c-5.4,0-5.4,1.9-10.8,1.9s-5.4-1.9-10.8-1.9s-5.4,1.9-10.8,1.9s-5.4-1.9-10.8-1.9s-5.4,1.9-10.8,1.9
	c-1.6,0-2.7-0.2-3.7-0.4v5.8h68.7v-5.4C63.3,91.2,63.3,89.4,57.8,89.4z"/>
<linearGradient id="SVGID_2_" gradientUnits="userSpaceOnUse" x1="105.2" y1="38.6209" x2="105.2" y2="45.4096" gradientTransform="matrix(1 0 0 1 0 50)">
	<stop  offset="0" style="stop-color:#A3C8E7"/>
	<stop  offset="1.352668e-02" style="stop-color:#A9CCE9"/>
	<stop  offset="8.426267e-02" style="stop-color:#C4DCF0"/>
	<stop  offset="0.1656" style="stop-color:#DAE9F5"/>
	<stop  offset="0.2605" style="stop-color:#EBF3FA"/>
	<stop  offset="0.3779" style="stop-color:#F6FAFD"/>
	<stop  offset="0.5427" style="stop-color:#FDFEFF"/>
	<stop  offset="1" style="stop-color:#FFFFFF"/>
</linearGradient>
<path class="st3" d="M133.7,90.2c-5.4,0-5.4-1.9-10.8-1.9c-5.4,0-5.4,1.9-10.8,1.9s-5.4-1.9-10.8-1.9s-5.4,1.9-10.8,1.9
	s-5.4-1.9-10.8-1.9s-5.4,1.9-10.8,1.9v5.4h72.6v-6.9C138.7,89.2,137.7,90.2,133.7,90.2z"/>
<linearGradient id="SVGID_3_" gradientUnits="userSpaceOnUse" x1="69.95" y1="41.8801" x2="69.95" y2="52.9474" gradientTransform="matrix(1 0 0 1 0 50)">
	<stop  offset="0" style="stop-color:#A3C8E7"/>
	<stop  offset="1.352668e-02" style="stop-color:#A9CCE9"/>
	<stop  offset="8.426267e-02" style="stop-color:#C4DCF0"/>
	<stop  offset="0.1656" style="stop-color:#DAE9F5"/>
	<stop  offset="0.2605" style="stop-color:#EBF3FA"/>
	<stop  offset="0.3779" style="stop-color:#F6FAFD"/>
	<stop  offset="0.5427" style="stop-color:#FDFEFF"/>
	<stop  offset="1" style="stop-color:#FFFFFF"/>
</linearGradient>
<path class="st4" d="M105.6,91.5c-8.8,0-8.8,3-17.7,3c-8.8,0-8.8-3-17.7-3c-8.8,0-8.8,3-17.7,3c-8.8,0-8.8-3-17.7-3
	c-8.8,0-8.8,3-17.7,3c-0.1,0-0.2,0-0.3,0v8.8h106.3v-8.8C114.5,94.5,114.5,91.5,105.6,91.5z"/>
<title>Asset 6</title>
<path class="st5" d="M20.7,25.2c0.6-1,1.7-1.7,3-1.7c1.9,0,3.4,1.5,3.4,3.4c0-1.9,1.5-3.4,3.4-3.4c1.3,0,2.4,0.7,3,1.7"/>
<path class="st5" d="M37.6,36.2c0.6-1,1.7-1.7,3-1.7c1.9,0,3.4,1.5,3.4,3.4c0-1.9,1.5-3.4,3.4-3.4c1.3,0,2.4,0.7,3,1.7"/>
<g>
	
		<rect x="28.8" y="92.1" transform="matrix(0.3886 -0.9214 0.9214 0.3886 -69.0413 91.5213)" class="st6" width="11.3" height="11.3"/>
	<rect x="26.6" y="97.7" transform="matrix(0.9262 -0.377 0.377 0.9262 -34.3547 20.2224)" class="st0" width="15.7" height="0.3"/>
	<rect x="34.3" y="90" transform="matrix(0.9263 -0.3767 0.3767 0.9263 -34.3379 20.2147)" class="st0" width="0.3" height="15.7"/>
</g>
<g>
	
		<rect x="72.8" y="89.4" transform="matrix(4.267127e-03 -1 1 4.267127e-03 -16.8912 174.567)" class="st0" width="12.7" height="12.7"/>
	<polygon class="st1" points="73,102.2 72.8,101.9 85.4,89.4 85.6,89.7 	"/>
</g>
<g>
	
		<rect x="100.7" y="89.5" transform="matrix(0.9928 -0.1195 0.1195 0.9928 -10.6713 13.4654)" class="st1" width="12.5" height="12.5"/>
	
		<rect x="98.2" y="95.6" transform="matrix(0.6176 -0.7865 0.7865 0.6176 -34.4199 120.7434)" class="st7" width="17.4" height="0.4"/>
</g>
<linearGradient id="SVGID_4_" gradientUnits="userSpaceOnUse" x1="70.45" y1="44.7688" x2="70.45" y2="55.8361" gradientTransform="matrix(1 0 0 1 0 50)">
	<stop  offset="0" style="stop-color:#A3C8E7"/>
	<stop  offset="1.352668e-02" style="stop-color:#A9CCE9"/>
	<stop  offset="8.426267e-02" style="stop-color:#C4DCF0"/>
	<stop  offset="0.1656" style="stop-color:#DAE9F5"/>
	<stop  offset="0.2605" style="stop-color:#EBF3FA"/>
	<stop  offset="0.3779" style="stop-color:#F6FAFD"/>
	<stop  offset="0.5427" style="stop-color:#FAFAFA"/>
	<stop  offset="1" style="stop-color:#FAFAFA"/>
</linearGradient>
<path class="st8" d="M106,97.4c-8.8,0-8.8-3-17.7-3c-8.8,0-8.8,3-17.7,3c-8.8,0-8.8-3-17.7-3c-8.8,0-8.8,3-17.7,3
	c-8.8,0-8.8-3-17.7-3c-8.8,0-8.8,3-17.7,3v8.8h141.3v-8.8c-8.8,0-8.8-3-17.7-3C114.8,94.4,114.8,97.4,106,97.4z"/>
</svg>
